13_1_tTF_regression_+blood
…
Let’s fit each model on the whole training set and evaluate on the test set.

# A tibble: 3 × 3
  model          rmse    r2
  <chr>         <dbl> <dbl>
1 Random Forest 0.117 0.455
2 LASSO         0.123 0.405
3 LM            0.125 0.384

Quantification of the residuals

Beware that these results are in log1p scale!

# A tibble: 246 × 5
     true   pred    error abs_error perc_error
    <dbl>  <dbl>    <dbl>     <dbl> <chr>     
 1 1.10   0.0677 -1.03      1.03    -93.8%    
 2 0.931  0.907  -0.0244    0.0244  -2.6%     
 3 0.870  0.768  -0.102     0.102   -11.8%    
 4 0.861  0.755  -0.107     0.107   -12.4%    
 5 0.747  0.589  -0.159     0.159   -21.2%    
 6 0.677  0.197  -0.480     0.480   -70.9%    
 7 0.627  0.0750 -0.552     0.552   -88%      
 8 0.572  0.251  -0.321     0.321   -56.1%    
 9 0.513  0.108  -0.405     0.405   -78.9%    
10 0.501  0.131  -0.371     0.371   -74%      
11 0.475  0.173  -0.302     0.302   -63.7%    
12 0.462  0.807   0.345     0.345   74.6%     
13 0.422  0.316  -0.106     0.106   -25.2%    
14 0.366  0.730   0.364     0.364   99.4%     
15 0.316  0.128  -0.188     0.188   -59.4%    
16 0.278  0.0859 -0.192     0.192   -69.1%    
17 0.253  0.0534 -0.199     0.199   -78.9%    
18 0.246  0.0704 -0.176     0.176   -71.4%    
19 0.195  0.0264 -0.169     0.169   -86.5%    
20 0.190  0.114  -0.0767    0.0767  -40.3%    
21 0.168  0.150  -0.0178    0.0178  -10.6%    
22 0.166  0.203   0.0365    0.0365  22%       
23 0.164  0.309   0.145     0.145   88%       
24 0.160  0.150  -0.00961   0.00961 -6%       
25 0.155  0.0589 -0.0959    0.0959  -62%      
26 0.153  0.0742 -0.0784    0.0784  -51.4%    
27 0.141  0.0423 -0.0988    0.0988  -70%      
28 0.139  0.151   0.0124    0.0124  9%        
29 0.138  0.240   0.102     0.102   74.3%     
30 0.135  0.0594 -0.0757    0.0757  -56%      
31 0.134  0.0668 -0.0676    0.0676  -50.3%    
32 0.127  0.0452 -0.0822    0.0822  -64.5%    
33 0.126  0.0508 -0.0757    0.0757  -59.8%    
34 0.116  0.0331 -0.0826    0.0826  -71.4%    
35 0.113  0.0432 -0.0694    0.0694  -61.7%    
36 0.110  0.0404 -0.0701    0.0701  -63.4%    
37 0.106  0.0376 -0.0684    0.0684  -64.5%    
38 0.102  0.151   0.0485    0.0485  47.5%     
39 0.0960 0.0539 -0.0421    0.0421  -43.8%    
40 0.0955 0.0448 -0.0507    0.0507  -53.1%    
41 0.0928 0.0252 -0.0675    0.0675  -72.8%    
42 0.0906 0.0459 -0.0447    0.0447  -49.3%    
43 0.0885 0.0511 -0.0374    0.0374  -42.3%    
44 0.0884 0.0674 -0.0210    0.0210  -23.8%    
45 0.0869 0.143   0.0559    0.0559  64.3%     
46 0.0861 0.0653 -0.0208    0.0208  -24.2%    
47 0.0858 0.0614 -0.0243    0.0243  -28.4%    
48 0.0854 0.0963  0.0109    0.0109  12.8%     
49 0.0849 0.0558 -0.0292    0.0292  -34.3%    
50 0.0841 0.0900  0.00597   0.00597 7.1%      
# ℹ 196 more rows
…
