13_tTF_regression_primary
…
Let’s fit each model on the whole training set and evaluate on the test set.

# A tibble: 3 × 3
  model          rmse    r2
  <chr>         <dbl> <dbl>
1 Random Forest 0.119 0.439
2 LASSO         0.125 0.386
3 LM            0.127 0.367

Quantification of the residuals

Beware that these results are in log1p scale!

# A tibble: 246 × 6
     true   pred    error abs_error perc_error cancer_type        
    <dbl>  <dbl>    <dbl>     <dbl> <chr>      <fct>              
 1 1.10   0.0795 -1.02      1.02    -92.8%     CNS-GBM            
 2 0.931  0.919  -0.0119    0.0119  -1.3%      CNS-LGG            
 3 0.870  0.860  -0.00986   0.00986 -1.1%      CNS-LGG            
 4 0.861  0.776  -0.0852    0.0852  -9.9%      SoftTissue-Liposarc
 5 0.747  0.648  -0.0992    0.0992  -13.3%     Liver-HCC          
 6 0.677  0.213  -0.463     0.463   -68.5%     Lung-AdenoCA       
 7 0.627  0.0838 -0.543     0.543   -86.6%     Liver-HCC          
 8 0.572  0.154  -0.418     0.418   -73.1%     Lymph-BNHL         
 9 0.513  0.142  -0.371     0.371   -72.4%     Kidney-RCC         
10 0.501  0.0468 -0.454     0.454   -90.7%     Lymph-BNHL         
11 0.475  0.135  -0.340     0.340   -71.5%     Lymph-BNHL         
12 0.462  0.841   0.379     0.379   82.1%      SoftTissue-Liposarc
13 0.422  0.413  -0.00960   0.00960 -2.3%      Lymph-BNHL         
14 0.366  0.803   0.436     0.436   119.1%     SoftTissue-Leiomyo 
15 0.316  0.134  -0.181     0.181   -57.4%     SoftTissue-Liposarc
16 0.278  0.106  -0.171     0.171   -61.7%     Head-SCC           
17 0.253  0.0443 -0.208     0.208   -82.5%     Biliary-AdenoCA    
18 0.246  0.0392 -0.207     0.207   -84.1%     Lymph-BNHL         
19 0.195  0.0279 -0.167     0.167   -85.7%     Kidney-RCC         
20 0.190  0.112  -0.0787    0.0787  -41.4%     Breast-AdenoCA     
21 0.168  0.202   0.0339    0.0339  20.2%      Lymph-BNHL         
22 0.166  0.197   0.0303    0.0303  18.2%      SoftTissue-Leiomyo 
23 0.164  0.330   0.165     0.165   100.6%     SoftTissue-Leiomyo 
24 0.160  0.154  -0.00562   0.00562 -3.5%      ColoRect-AdenoCA   
25 0.155  0.0654 -0.0894    0.0894  -57.8%     Liver-HCC          
26 0.153  0.0413 -0.111     0.111   -72.9%     Kidney-RCC         
27 0.141  0.0577 -0.0834    0.0834  -59.1%     Lung-SCC           
28 0.139  0.181   0.0419    0.0419  30.2%      Lymph-BNHL         
29 0.138  0.230   0.0919    0.0919  66.6%      Lung-SCC           
30 0.135  0.0387 -0.0963    0.0963  -71.3%     Lymph-BNHL         
31 0.134  0.0537 -0.0807    0.0807  -60.1%     Lymph-BNHL         
32 0.127  0.0345 -0.0929    0.0929  -72.9%     Kidney-RCC         
33 0.126  0.0329 -0.0936    0.0936  -74%       Lung-SCC           
34 0.116  0.0278 -0.0879    0.0879  -75.9%     Kidney-RCC         
35 0.113  0.0499 -0.0627    0.0627  -55.7%     Lymph-BNHL         
36 0.110  0.0374 -0.0731    0.0731  -66.1%     Breast-AdenoCA     
37 0.106  0.0561 -0.0500    0.0500  -47.2%     Breast-AdenoCA     
38 0.102  0.137   0.0352    0.0352  34.5%      Lymph-BNHL         
39 0.0960 0.0360 -0.0599    0.0599  -62.5%     Lymph-CLL          
40 0.0955 0.0456 -0.0499    0.0499  -52.2%     Thy-AdenoCA        
41 0.0928 0.0377 -0.0551    0.0551  -59.4%     ColoRect-AdenoCA   
42 0.0906 0.0483 -0.0423    0.0423  -46.7%     Uterus-AdenoCA     
43 0.0885 0.0372 -0.0513    0.0513  -57.9%     Head-SCC           
44 0.0884 0.0376 -0.0508    0.0508  -57.4%     Lymph-CLL          
45 0.0869 0.188   0.101     0.101   116.1%     Ovary-AdenoCA      
46 0.0861 0.0821 -0.00396   0.00396 -4.6%      ColoRect-AdenoCA   
47 0.0858 0.0397 -0.0460    0.0460  -53.7%     Ovary-AdenoCA      
48 0.0854 0.104   0.0188    0.0188  22%        Breast-AdenoCA     
49 0.0849 0.0698 -0.0151    0.0151  -17.8%     SoftTissue-Liposarc
50 0.0841 0.0898  0.00574   0.00574 6.8%       Lymph-CLL          
# ℹ 196 more rows
…
