15_1_bTF_regression_+tumor
…
Let’s fit each model on the whole training set and evaluate on the test set.

# A tibble: 3 × 3
  model           rmse      r2
  <chr>          <dbl>   <dbl>
1 Random Forest 0.0515  0.0168
2 LASSO         0.0516  0.0149
3 LM            0.0528 -0.0317

Quantification of the residuals

Beware that these results are in log1p scale!

# A tibble: 246 × 6
     true   pred    error abs_error perc_error cancer_type        
    <dbl>  <dbl>    <dbl>     <dbl> <chr>      <chr>              
 1 0      0.0663  0.0663    0.0663  Inf%       CNS-GBM            
 2 0.0238 0.0333  0.00947   0.00947 39.7%      CNS-LGG            
 3 0.0286 0.0244 -0.00421   0.00421 -14.7%     CNS-LGG            
 4 0      0.0363  0.0363    0.0363  Inf%       SoftTissue-Liposarc
 5 0      0.0420  0.0420    0.0420  Inf%       Liver-HCC          
 6 0.0203 0.0628  0.0425    0.0425  208.8%     Lung-AdenoCA       
 7 0.0265 0.0839  0.0574    0.0574  216.5%     Liver-HCC          
 8 0.365  0.101  -0.265     0.265   -72.5%     Lymph-BNHL         
 9 0.0263 0.0661  0.0397    0.0397  150.9%     Kidney-RCC         
10 0.208  0.0483 -0.160     0.160   -76.8%     Lymph-BNHL         
11 0.167  0.129  -0.0375    0.0375  -22.5%     Lymph-BNHL         
12 0      0.0393  0.0393    0.0393  Inf%       SoftTissue-Liposarc
13 0.0844 0.148   0.0636    0.0636  75.3%      Lymph-BNHL         
14 0.0544 0.0532 -0.00121   0.00121 -2.2%      SoftTissue-Leiomyo 
15 0      0.139   0.139     0.139   Inf%       SoftTissue-Liposarc
16 0.0257 0.0491  0.0233    0.0233  90.8%      Head-SCC           
17 0.0734 0.0596 -0.0139    0.0139  -18.9%     Biliary-AdenoCA    
18 0.162  0.0926 -0.0694    0.0694  -42.8%     Lymph-BNHL         
19 0.0753 0.0503 -0.0250    0.0250  -33.2%     Kidney-RCC         
20 0      0.0483  0.0483    0.0483  Inf%       Breast-AdenoCA     
21 0.0246 0.0574  0.0328    0.0328  133.7%     Lymph-BNHL         
22 0.0257 0.0709  0.0452    0.0452  175.7%     SoftTissue-Leiomyo 
23 0.0580 0.0677  0.00970   0.00970 16.7%      SoftTissue-Leiomyo 
24 0.0317 0.0694  0.0377    0.0377  119.1%     ColoRect-AdenoCA   
25 0      0.0491  0.0491    0.0491  Inf%       Liver-HCC          
26 0.110  0.0609 -0.0495    0.0495  -44.9%     Kidney-RCC         
27 0.0176 0.0434  0.0258    0.0258  147%       Lung-SCC           
28 0      0.0704  0.0704    0.0704  Inf%       Lymph-BNHL         
29 0      0.0500  0.0500    0.0500  Inf%       Lung-SCC           
30 0.0500 0.0547  0.00471   0.00471 9.4%       Lymph-BNHL         
31 0.0489 0.0441 -0.00482   0.00482 -9.9%      Lymph-BNHL         
32 0.0757 0.0500 -0.0256    0.0256  -33.9%     Kidney-RCC         
33 0.0822 0.0458 -0.0364    0.0364  -44.3%     Lung-SCC           
34 0.116  0.0586 -0.0575    0.0575  -49.6%     Kidney-RCC         
35 0.0211 0.0532  0.0322    0.0322  152.6%     Lymph-BNHL         
36 0.0335 0.0384  0.00489   0.00489 14.6%      Breast-AdenoCA     
37 0      0.0573  0.0573    0.0573  Inf%       Breast-AdenoCA     
38 0.101  0.105   0.00382   0.00382 3.8%       Lymph-BNHL         
39 0.123  0.0551 -0.0675    0.0675  -55.1%     Lymph-CLL          
40 0.0451 0.0568  0.0117    0.0117  26%        Thy-AdenoCA        
41 0      0.0795  0.0795    0.0795  Inf%       ColoRect-AdenoCA   
42 0.0263 0.0390  0.0127    0.0127  48.3%      Uterus-AdenoCA     
43 0.0555 0.0417 -0.0138    0.0138  -24.9%     Head-SCC           
44 0.116  0.0439 -0.0716    0.0716  -62%       Lymph-CLL          
45 0      0.0419  0.0419    0.0419  Inf%       Ovary-AdenoCA      
46 0      0.0266  0.0266    0.0266  Inf%       ColoRect-AdenoCA   
47 0.0631 0.0362 -0.0270    0.0270  -42.7%     Ovary-AdenoCA      
48 0      0.0414  0.0414    0.0414  Inf%       Breast-AdenoCA     
49 0      0.0424  0.0424    0.0424  Inf%       SoftTissue-Liposarc
50 0.0570 0.0379 -0.0191    0.0191  -33.5%     Lymph-CLL          
# ℹ 196 more rows
…
