15_bTF_regression_primary
…
Let’s fit each model on the whole training set and evaluate on the test set.

# A tibble: 3 × 3
  model           rmse      r2
  <chr>          <dbl>   <dbl>
1 LASSO         0.0526 -0.0253
2 LM            0.0534 -0.0548
3 Random Forest 0.0545 -0.0995

Quantification of the residuals

Beware that these results are in log1p scale!

# A tibble: 246 × 6
     true   pred     error abs_error perc_error cancer_type        
    <dbl>  <dbl>     <dbl>     <dbl> <chr>      <chr>              
 1 0      0.0408  0.0408    0.0408   Inf%       CNS-GBM            
 2 0.0238 0.0415  0.0176    0.0176   73.9%      CNS-LGG            
 3 0.0286 0.0315  0.00291   0.00291  10.1%      CNS-LGG            
 4 0      0.0317  0.0317    0.0317   Inf%       SoftTissue-Liposarc
 5 0      0.0414  0.0414    0.0414   Inf%       Liver-HCC          
 6 0.0203 0.0299  0.00960   0.00960  47.2%      Lung-AdenoCA       
 7 0.0265 0.0345  0.00801   0.00801  30.2%      Liver-HCC          
 8 0.365  0.0710 -0.294     0.294    -80.6%     Lymph-BNHL         
 9 0.0263 0.0403  0.0139    0.0139   52.9%      Kidney-RCC         
10 0.208  0.0194 -0.189     0.189    -90.7%     Lymph-BNHL         
11 0.167  0.100  -0.0667    0.0667   -40%       Lymph-BNHL         
12 0      0.0408  0.0408    0.0408   Inf%       SoftTissue-Liposarc
13 0.0844 0.134   0.0491    0.0491   58.1%      Lymph-BNHL         
14 0.0544 0.0604  0.00598   0.00598  11%        SoftTissue-Leiomyo 
15 0      0.126   0.126     0.126    Inf%       SoftTissue-Liposarc
16 0.0257 0.0330  0.00728   0.00728  28.3%      Head-SCC           
17 0.0734 0.0433 -0.0301    0.0301   -41%       Biliary-AdenoCA    
18 0.162  0.0469 -0.115     0.115    -71%       Lymph-BNHL         
19 0.0753 0.0274 -0.0479    0.0479   -63.6%     Kidney-RCC         
20 0      0.0309  0.0309    0.0309   Inf%       Breast-AdenoCA     
21 0.0246 0.0390  0.0144    0.0144   58.8%      Lymph-BNHL         
22 0.0257 0.0669  0.0412    0.0412   160.2%     SoftTissue-Leiomyo 
23 0.0580 0.0607  0.00277   0.00277  4.8%       SoftTissue-Leiomyo 
24 0.0317 0.0543  0.0226    0.0226   71.4%      ColoRect-AdenoCA   
25 0      0.0306  0.0306    0.0306   Inf%       Liver-HCC          
26 0.110  0.0300 -0.0804    0.0804   -72.8%     Kidney-RCC         
27 0.0176 0.0261  0.00849   0.00849  48.3%      Lung-SCC           
28 0      0.0528  0.0528    0.0528   Inf%       Lymph-BNHL         
29 0      0.0242  0.0242    0.0242   Inf%       Lung-SCC           
30 0.0500 0.0373 -0.0128    0.0128   -25.5%     Lymph-BNHL         
31 0.0489 0.0234 -0.0256    0.0256   -52.2%     Lymph-BNHL         
32 0.0757 0.0205 -0.0551    0.0551   -72.9%     Kidney-RCC         
33 0.0822 0.0171 -0.0651    0.0651   -79.2%     Lung-SCC           
34 0.116  0.0216 -0.0946    0.0946   -81.4%     Kidney-RCC         
35 0.0211 0.0275  0.00646   0.00646  30.6%      Lymph-BNHL         
36 0.0335 0.0201 -0.0134    0.0134   -40%       Breast-AdenoCA     
37 0      0.0428  0.0428    0.0428   Inf%       Breast-AdenoCA     
38 0.101  0.0867 -0.0146    0.0146   -14.4%     Lymph-BNHL         
39 0.123  0.0379 -0.0848    0.0848   -69.1%     Lymph-CLL          
40 0.0451 0.0375 -0.00758   0.00758  -16.8%     Thy-AdenoCA        
41 0      0.0455  0.0455    0.0455   Inf%       ColoRect-AdenoCA   
42 0.0263 0.0255 -0.000746  0.000746 -2.8%      Uterus-AdenoCA     
43 0.0555 0.0253 -0.0303    0.0303   -54.5%     Head-SCC           
44 0.116  0.0350 -0.0805    0.0805   -69.7%     Lymph-CLL          
45 0      0.0577  0.0577    0.0577   Inf%       Ovary-AdenoCA      
46 0      0.0286  0.0286    0.0286   Inf%       ColoRect-AdenoCA   
47 0.0631 0.0265 -0.0366    0.0366   -57.9%     Ovary-AdenoCA      
48 0      0.0381  0.0381    0.0381   Inf%       Breast-AdenoCA     
49 0      0.0445  0.0445    0.0445   Inf%       SoftTissue-Liposarc
50 0.0570 0.0372 -0.0198    0.0198   -34.7%     Lymph-CLL          
# ℹ 196 more rows
…
